Basic workflow: Calculating Indicator Totals
…
rm(list = ls()) # remove objects
# url <- "https://drive.google.com/file/d/1MAs5i-j7sMVFg_asZpb194_drDYdaxXS/view?usp=drive_link"
# path <- "../../downloads/extract.Rdata"
# googledrive::drive_download(url, path = path, overwrite = T)
load("../downloads/extract.Rdata") # see comment above

An indicator analysis often starts with the indicator number.
Analysts will typically know the indicator number, but the structure of
the disaggregates is varied and often a bottleneck in analysis. To
access and browse the disaggregates

print_udns("EG.3.2-27") 
#> # A tibble: 174 × 4
#>    ic        Disaggregate.Name                                uudn  udn_formulas
#>    <chr>     <chr>                                            <chr> <list>      
#>  1 EG.3.2-27 Value of agriculture-related financing accessed… EG.3… <chr [1]>   
#>  2 EG.3.2-27 TOTAL VALUE of financing received by recipient … EG.3… <chr [3]>   
#>  3 EG.3.2-27 Size of recipient(s)                             EG.3… <chr [1]>   
#>  4 EG.3.2-27 Individuals / Microenterprises                   EG.3… <chr [3]>   
#>  5 EG.3.2-27 Small and Medium Enterprises                     EG.3… <chr [3]>   
#>  6 EG.3.2-27 Large Enterprises and Corporations               EG.3… <chr [3]>   
#>  7 EG.3.2-27 Disaggregates Not Available                      EG.3… <chr [3]>   
#>  8 EG.3.2-27 Sex of recipient(s)                              EG.3… <chr [1]>   
#>  9 EG.3.2-27 Male                                             EG.3… <chr [3]>   
#> 10 EG.3.2-27 Female                                           EG.3… <chr [3]>   
#> # ℹ 164 more rows
…
